{
    "page": 1,
    "total_results": 20023,
    "total_pages": 1002,
    "results": [
        {
            "original_name": "The Walking Dead",
            "genre_ids": [
                18,
                10759,
                10765
            ],
            "name": "The Walking Dead",
            "popularity": 210.368,
            "origin_country": [
                "US"
            ],
            "vote_count": 3653,
            "first_air_date": "2010-10-31",
            "backdrop_path": "/xVzvD5BPAU4HpleFSo8QOdHkndo.jpg",
            "original_language": "en",
            "id": 1402,
            "vote_average": 7.3,
            "overview": "Sheriff's deputy Rick Grimes awakens from a coma to find a post-apocalyptic world dominated by flesh-eating zombies. He sets out to find his family and encounters many other survivors along the way.",
            "poster_path": "/yn7psGTZsHumHOkLUmYpyrIcA2G.jpg"
        },
        {
            "original_name": "The Big Bang Theory",
            "genre_ids": [
                35
            ],
            "name": "The Big Bang Theory",
            "popularity": 148.364,
            "origin_country": [
                "US"
            ],
            "vote_count": 3278,
            "first_air_date": "2007-09-24",
            "backdrop_path": "/nGsNruW3W27V6r4gkyc3iiEGsKR.jpg",
            "original_language": "en",
            "id": 1418,
            "vote_average": 6.8,
            "overview": "The Big Bang Theory is centered on five characters living in Pasadena, California: roommates Leonard Hofstadter and Sheldon Cooper; Penny, a waitress and aspiring actress who lives across the hall; and Leonard and Sheldon's equally geeky and socially awkward friends and co-workers, mechanical engineer Howard Wolowitz and astrophysicist Raj Koothrappali. The geekiness and intellect of the four guys is contrasted for comic effect with Penny's social skills and common sense.",
            "poster_path": "/ooBGRQBdbGzBxAVfExiO8r7kloA.jpg"
        },
        {
            "original_name": "Doctor Who",
            "genre_ids": [
                18,
                10759,
                10765
            ],
            "name": "Doctor Who",
            "popularity": 103.278,
            "origin_country": [
                "GB"
            ],
            "vote_count": 1232,
            "first_air_date": "2005-03-26",
            "backdrop_path": "/mQ9yeCuofNatSyErUKAPD1uOq8Q.jpg",
            "original_language": "en",
            "id": 57243,
            "vote_average": 7,
            "overview": "The Doctor is a Time Lord: a 900 year old alien with 2 hearts, part of a gifted civilization who mastered time travel. The Doctor saves planets for a living – more of a hobby actually, and the Doctor's very, very good at it.",
            "poster_path": "/3EcYZhBMAvVw4czcDLg9Sd0FuzQ.jpg"
        },
        {
            "original_name": "The Simpsons",
            "genre_ids": [
                16,
                35
            ],
            "name": "The Simpsons",
            "popularity": 98.339,
            "origin_country": [
                "US"
            ],
            "vote_count": 1691,
            "first_air_date": "1989-12-17",
            "backdrop_path": "/lnnrirKFGwFW18GiH3AmuYy40cz.jpg",
            "original_language": "en",
            "id": 456,
            "vote_average": 7.1,
            "overview": "Set in Springfield, the average American town, the show focuses on the antics and everyday adventures of the Simpson family; Homer, Marge, Bart, Lisa and Maggie, as well as a virtual cast of thousands. Since the beginning, the series has been a pop culture icon, attracting hundreds of celebrities to guest star. The show has also made name for itself in its fearless satirical take on politics, media and American life in general.",
            "poster_path": "/yTZQkSsxUFJZJe67IenRM0AEklc.jpg"
        },
        {
            "original_name": "Marvel's Iron Fist",
            "genre_ids": [
                80,
                18,
                10759,
                10765
            ],
            "name": "Marvel's Iron Fist",
            "popularity": 94.636,
            "origin_country": [
                "US"
            ],
            "vote_count": 676,
            "first_air_date": "2017-03-17",
            "backdrop_path": "/xHCfWGlxwbtMeeOnTvxUCZRGnkk.jpg",
            "original_language": "en",
            "id": 62127,
            "vote_average": 6.1,
            "overview": "Danny Rand resurfaces 15 years after being presumed dead. Now, with the power of the Iron Fist, he seeks to reclaim his past and fulfill his destiny.",
            "poster_path": "/nv4nLXbDhcISPP8C1mgaxKU50KO.jpg"
        },
        {
            "original_name": "Grey's Anatomy",
            "genre_ids": [
                18
            ],
            "name": "Grey's Anatomy",
            "popularity": 77.824,
            "origin_country": [
                "US"
            ],
            "vote_count": 779,
            "first_air_date": "2005-03-27",
            "backdrop_path": "/y6JABtgWMVYPx84Rvy7tROU5aNH.jpg",
            "original_language": "en",
            "id": 1416,
            "vote_average": 6.3,
            "overview": "Follows the personal and professional lives of a group of doctors at Seattle’s Grey Sloan Memorial Hospital.",
            "poster_path": "/mgOZSS2FFIGtfVeac1buBw3Cx5w.jpg"
        },
        {
            "original_name": "Law & Order: Special Victims Unit",
            "genre_ids": [
                80,
                18
            ],
            "name": "Law & Order: Special Victims Unit",
            "popularity": 74.445,
            "origin_country": [
                "US"
            ],
            "vote_count": 524,
            "first_air_date": "1999-09-20",
            "backdrop_path": "/kOvt2BOOwSAQCT8yo3pM3X2GXjh.jpg",
            "original_language": "en",
            "id": 2734,
            "vote_average": 6.2,
            "overview": "In the criminal justice system, sexually-based offenses are considered especially heinous. In New York City, the dedicated detectives who investigate these vicious felonies are members of an elite squad known as the Special Victims Unit. These are their stories.",
            "poster_path": "/ydSvHgksuB8Ix0V05QEZBKrnIcg.jpg"
        },
        {
            "original_name": "Z Nation",
            "genre_ids": [
                18,
                10759,
                10765
            ],
            "name": "Z Nation",
            "popularity": 70.763,
            "origin_country": [
                "US"
            ],
            "vote_count": 237,
            "first_air_date": "2014-09-12",
            "backdrop_path": "/jCvwvSH5i9bLaql1rR21j9U9LS.jpg",
            "original_language": "en",
            "id": 61345,
            "vote_average": 6.4,
            "overview": "Three years after the zombie virus has gutted the country, a team of everyday heroes must transport the only known survivor of the plague from New York to California, where the last functioning viral lab waits for his blood.",
            "poster_path": "/gXfeDMkEcHoYBvtkbU11g3F81b.jpg"
        },
        {
            "original_name": "La casa de papel",
            "genre_ids": [
                80,
                18
            ],
            "name": "Money Heist",
            "popularity": 68.47,
            "origin_country": [
                "ES"
            ],
            "vote_count": 245,
            "first_air_date": "2017-05-02",
            "backdrop_path": "/flyWT9eIE8vdy1tzEGxBN4RkoeN.jpg",
            "original_language": "es",
            "id": 71446,
            "vote_average": 8.1,
            "overview": "To carry out the biggest heist in history, a mysterious man called The Professor recruits a band of eight robbers who have a single characteristic: none of them has anything to lose. Five months of seclusion - memorizing every step, every detail, every probability - culminate in eleven days locked up in the National Coinage and Stamp Factory of Spain, surrounded by police forces and with dozens of hostages in their power, to find out whether their suicide wager will lead to everything or nothing.",
            "poster_path": "/2d0ESa56OesIFAOAl8ZZi0mHlxC.jpg"
        },
        {
            "original_name": "Family Guy",
            "genre_ids": [
                16,
                35
            ],
            "name": "Family Guy",
            "popularity": 65.14,
            "origin_country": [
                "US"
            ],
            "vote_count": 1252,
            "first_air_date": "1999-01-31",
            "backdrop_path": "/pH38r4TWTqq7Mcs6XAlwgzNUeJe.jpg",
            "original_language": "en",
            "id": 1434,
            "vote_average": 6.5,
            "overview": "Sick, twisted, politically incorrect and Freakin' Sweet animated series featuring the adventures of the dysfunctional Griffin family. Bumbling Peter and long-suffering Lois have three kids. Stewie (a brilliant but sadistic baby bent on killing his mother and taking over the world), Meg (the oldest, and is the most unpopular girl in town) and Chris (the middle kid, he's not very bright but has a passion for movies). The final member of the family is Brian - a talking dog and much more than a pet, he keeps Stewie in check whilst sipping Martinis and sorting through his own life issues.",
            "poster_path": "/gBGUL1UTUNmdRQT8gA1LUV4yg39.jpg"
        },
        {
            "original_name": "The Flash",
            "genre_ids": [
                18,
                10765
            ],
            "name": "The Flash",
            "popularity": 63.537,
            "origin_country": [
                "US"
            ],
            "vote_count": 2256,
            "first_air_date": "2014-10-07",
            "backdrop_path": "/mmxxEpTqVdwBlu5Pii7tbedBkPC.jpg",
            "original_language": "en",
            "id": 60735,
            "vote_average": 6.7,
            "overview": "After a particle accelerator causes a freak storm, CSI Investigator Barry Allen is struck by lightning and falls into a coma. Months later he awakens with the power of super speed, granting him the ability to move through Central City like an unseen guardian angel. Though initially excited by his newfound powers, Barry is shocked to discover he is not the only \"meta-human\" who was created in the wake of the accelerator explosion -- and not everyone is using their new powers for good. Barry partners with S.T.A.R. Labs and dedicates his life to protect the innocent. For now, only a few close friends and associates know that Barry is literally the fastest man alive, but it won't be long before the world learns what Barry Allen has become...The Flash.",
            "poster_path": "/lUFK7ElGCk9kVEryDJHICeNdmd1.jpg"
        },
        {
            "original_name": "American Horror Story",
            "genre_ids": [
                18,
                9648,
                10765
            ],
            "name": "American Horror Story",
            "popularity": 63.497,
            "origin_country": [
                "US"
            ],
            "vote_count": 866,
            "first_air_date": "2011-10-05",
            "backdrop_path": "/ilKE2RPD8tkynAOHefX9ZclG1yq.jpg",
            "original_language": "en",
            "id": 1413,
            "vote_average": 7,
            "overview": "An anthology horror drama series centering on different characters and locations, including a house with a murderous past, an asylum, a witch coven, a freak show, a hotel, a farmhouse in Roanoke and a cult.",
            "poster_path": "/7htwyZzjIUFIIkGQ6HhMgv2kVmM.jpg"
        },
        {
            "original_name": "Van Helsing",
            "genre_ids": [
                10759,
                10765
            ],
            "name": "Van Helsing",
            "popularity": 63.116,
            "origin_country": [
                "US"
            ],
            "vote_count": 166,
            "first_air_date": "2016-09-23",
            "backdrop_path": "/871Z6KlcOZ7TesNsuqOV5Zk2HRC.jpg",
            "original_language": "en",
            "id": 65820,
            "vote_average": 5.7,
            "overview": "Vanessa Helsing, the daughter of famous vampire hunter and Dracula nemesis Abraham Van Helsing is resurrected five years in the future to find out that vampires have taken over the world and that she possesses unique power over them. She is humanity’s last hope to lead an offensive to take back what has been lost.",
            "poster_path": "/j4tRuhwfAOBKCoZeY6PDMJHzdW9.jpg"
        },
        {
            "original_name": "The Man in the High Castle",
            "genre_ids": [
                18,
                10765
            ],
            "name": "The Man in the High Castle",
            "popularity": 61.4,
            "origin_country": [
                "US"
            ],
            "vote_count": 299,
            "first_air_date": "2015-01-15",
            "backdrop_path": "/nsVueoSwrgZBxlFaankiPIhNRPH.jpg",
            "original_language": "en",
            "id": 62017,
            "vote_average": 7.6,
            "overview": "Based on Philip K. Dick's award-winning novel, The Man in the High Castle explores what it would be like if the Allied Powers had lost WWII, and Japan and Germany ruled the United States.",
            "poster_path": "/xhoDZbMNeyCA0BGPZQsdIiO43Dp.jpg"
        },
        {
            "original_name": "Supernatural",
            "genre_ids": [
                18,
                9648,
                10765
            ],
            "name": "Supernatural",
            "popularity": 60.233,
            "origin_country": [
                "US"
            ],
            "vote_count": 1553,
            "first_air_date": "2005-09-13",
            "backdrop_path": "/koMUCyGWNtH5LXYbGqjsUwvgtsT.jpg",
            "original_language": "en",
            "id": 1622,
            "vote_average": 7.2,
            "overview": "When they were boys, Sam and Dean Winchester lost their mother to a mysterious and demonic supernatural force. Subsequently, their father raised them to be soldiers. He taught them about the paranormal evil that lives in the dark corners and on the back roads of America ... and he taught them how to kill it. Now, the Winchester brothers crisscross the country in their '67 Chevy Impala, battling every kind of supernatural threat they encounter along the way. ",
            "poster_path": "/pui1V389cQft0BVFu9pbsYLEW1Q.jpg"
        },
        {
            "original_name": "Game of Thrones",
            "genre_ids": [
                18,
                10759,
                10765
            ],
            "name": "Game of Thrones",
            "popularity": 56.881,
            "origin_country": [
                "US"
            ],
            "vote_count": 4891,
            "first_air_date": "2011-04-17",
            "backdrop_path": "/gX8SYlnL9ZznfZwEH4KJUePBFUM.jpg",
            "original_language": "en",
            "id": 1399,
            "vote_average": 8.2,
            "overview": "Seven noble families fight for control of the mythical land of Westeros. Friction between the houses leads to full-scale war. All while a very ancient evil awakens in the farthest north. Amidst the war, a neglected military order of misfits, the Night's Watch, is all that stands between the realms of men and icy horrors beyond.",
            "poster_path": "/gwPSoYUHAKmdyVywgLpKKA4BjRr.jpg"
        },
        {
            "original_name": "Madam Secretary",
            "genre_ids": [
                18
            ],
            "name": "Madam Secretary",
            "popularity": 53.204,
            "origin_country": [
                "US"
            ],
            "vote_count": 99,
            "first_air_date": "2014-09-21",
            "backdrop_path": "/lgKuKrXAd90Z2IjYpL767WSUBjN.jpg",
            "original_language": "en",
            "id": 61378,
            "vote_average": 6.6,
            "overview": "Former CIA agent Elizabeth Faulkner McCord is suddenly thrust into the position of US Secretary of State where she must quickly learn to drive international diplomacy, wrangle office politics and balance a complex family life.",
            "poster_path": "/ynrH7UnfRfBRZqeV3VWGrAWQh4A.jpg"
        },
        {
            "original_name": "Salvation",
            "genre_ids": [
                18,
                10765
            ],
            "name": "Salvation",
            "popularity": 53.067,
            "origin_country": [
                "US"
            ],
            "vote_count": 148,
            "first_air_date": "2017-07-12",
            "backdrop_path": "/qvZ5AfgZwPRtCnpklajMWye0iOR.jpg",
            "original_language": "en",
            "id": 70513,
            "vote_average": 6.3,
            "overview": "An MIT grad student and a tech superstar bring a low-level Pentagon official a staggering discovery that an asteroid is just six months away from colliding with Earth.",
            "poster_path": "/hXCd9FUT7ZjoB390cGioVhEiXOB.jpg"
        },
        {
            "original_name": "South Park",
            "genre_ids": [
                16,
                35
            ],
            "name": "South Park",
            "popularity": 53.008,
            "origin_country": [
                "US"
            ],
            "vote_count": 927,
            "first_air_date": "1997-08-13",
            "backdrop_path": "/mSDKNVvDfitFE6Fb6fSSl5DQmgS.jpg",
            "original_language": "en",
            "id": 2190,
            "vote_average": 7.8,
            "overview": "Follows the misadventures of four irreverent grade-schoolers in the quiet, dysfunctional town of South Park, Colorado.",
            "poster_path": "/v9zc0cZpy5aPSfAy6Tgb6I1zWgV.jpg"
        },
        {
            "original_name": "Fresh Off the Boat",
            "genre_ids": [
                35
            ],
            "name": "Fresh Off the Boat",
            "popularity": 52.233,
            "origin_country": [
                "US"
            ],
            "vote_count": 81,
            "first_air_date": "2015-02-04",
            "backdrop_path": "/iuZSSXsX1tcmWhT6fkm5zNZCHqX.jpg",
            "original_language": "en",
            "id": 61692,
            "vote_average": 7,
            "overview": "A '90s-set single-camera comedy about a hip-hop-loving Asian kid growing up in suburban Orlando, being raised by an immigrant father obsessed with all things American and an immigrant mother often bewildered by white culture.",
            "poster_path": "/o8ekdtv98EnrymVLw3VJ2WoFBoM.jpg"
        }
    ]
}
