{
    "page": 1,
    "total_results": 628,
    "total_pages": 32,
    "results": [
        {
            "original_name": "I Am Not an Animal",
            "genre_ids": [
                16,
                35
            ],
            "name": "I Am Not an Animal",
            "popularity": 7.555,
            "origin_country": [
                "GB"
            ],
            "vote_count": 118,
            "first_air_date": "2004-05-10",
            "backdrop_path": "/o8Site0BMZ8xhknKJ0m52iLfqHg.jpg",
            "original_language": "en",
            "id": 100,
            "vote_average": 9.6,
            "overview": "I Am Not An Animal is an animated comedy series about the only six talking animals in the world, whose cosseted existence in a vivisection unit is turned upside down when they are liberated by animal rights activists.",
            "poster_path": "/nMhv6jG5dtLdW7rgguYWvpbk0YN.jpg"
        },
        {
            "original_name": "Rick and Morty",
            "genre_ids": [
                16,
                35,
                10759,
                10765
            ],
            "name": "Rick and Morty",
            "popularity": 24.672,
            "origin_country": [
                "US"
            ],
            "vote_count": 963,
            "first_air_date": "2013-12-02",
            "backdrop_path": "/mzzHr6g1yvZ05Mc7hNj3tUdy2bM.jpg",
            "original_language": "en",
            "id": 60625,
            "vote_average": 8.5,
            "overview": "Rick is a mentally-unbalanced but scientifically-gifted old man who has recently reconnected with his family. He spends most of his time involving his young grandson Morty in dangerous, outlandish adventures throughout space and alternate universes. Compounded with Morty's already unstable family life, these events cause Morty much distress at home and school.",
            "poster_path": "/qJdfO3ahgAMf2rcmhoqngjBBZW1.jpg"
        },
        {
            "original_name": "Planet Earth",
            "genre_ids": [
                99
            ],
            "name": "Planet Earth",
            "popularity": 10.979,
            "origin_country": [
                "GB"
            ],
            "vote_count": 406,
            "first_air_date": "2006-03-05",
            "backdrop_path": "/4AJnC8L5CXdqb6tMeUBL5jdHfuG.jpg",
            "original_language": "en",
            "id": 1044,
            "vote_average": 8.4,
            "overview": "David Attenborough celebrates the amazing variety of the natural world in this epic documentary series, filmed over four years across 64 different countries.",
            "poster_path": "/tI5hLHgrfOTOhPjX22vlo9YsdgE.jpg"
        },
        {
            "original_name": "Planet Earth II",
            "genre_ids": [
                99,
                10751
            ],
            "name": "Planet Earth II",
            "popularity": 10.478,
            "origin_country": [
                "GB"
            ],
            "vote_count": 250,
            "first_air_date": "2016-11-06",
            "backdrop_path": "/xIt4DDYipMPNu2HDBrhUS4ndSYb.jpg",
            "original_language": "en",
            "id": 68595,
            "vote_average": 8.3,
            "overview": "David Attenborough presents a documentary series exploring how animals meet the challenges of surviving in the most iconic habitats on earth.",
            "poster_path": "/uy5QoTu8fc6fGXMCTMbpQJFUEB0.jpg"
        },
        {
            "original_name": "Stranger Things",
            "genre_ids": [
                18,
                9648,
                10765
            ],
            "name": "Stranger Things",
            "popularity": 22.892,
            "origin_country": [
                "US"
            ],
            "vote_count": 1857,
            "first_air_date": "2016-07-15",
            "backdrop_path": "/56v2KjBlU4XaOv9rVYEQypROD7P.jpg",
            "original_language": "en",
            "id": 66732,
            "vote_average": 8.4,
            "overview": "When a young boy vanishes, a small town uncovers a mystery involving secret experiments, terrifying supernatural forces, and one strange little girl.",
            "poster_path": "/lXS60geme1LlEob5Wgvj3KilClA.jpg"
        },
        {
            "original_name": "カウボーイビバップ",
            "genre_ids": [
                16,
                18,
                10759,
                10765
            ],
            "name": "Cowboy Bebop",
            "popularity": 11.401,
            "origin_country": [
                "JP"
            ],
            "vote_count": 246,
            "first_air_date": "1998-04-03",
            "backdrop_path": "/pL2VkIcoHnyX5oLd3IIaANkzB01.jpg",
            "original_language": "ja",
            "id": 30991,
            "vote_average": 8.4,
            "overview": "In 2071, roughly fifty years after an accident with a hyperspace gateway made the Earth almost uninhabitable, humanity has colonized most of the rocky planets and moons of the Solar System. Amid a rising crime rate, the Inter Solar System Police (ISSP) set up a legalized contract system, in which registered bounty hunters (also referred to as \"Cowboys\") chase criminals and bring them in alive in return for a reward.",
            "poster_path": "/wjFU9z8EfOwczRTv0FrPcv9zHME.jpg"
        },
        {
            "original_name": "鋼の錬金術師 FULLMETAL ALCHEMIST",
            "genre_ids": [
                16,
                18,
                9648,
                10759
            ],
            "name": "Fullmetal Alchemist: Brotherhood",
            "popularity": 13.983,
            "origin_country": [
                "JP"
            ],
            "vote_count": 238,
            "first_air_date": "2009-04-05",
            "backdrop_path": "/sPJbWoqud7YSsMHRXYxYc4b07ps.jpg",
            "original_language": "ja",
            "id": 31911,
            "vote_average": 8.3,
            "overview": "Edward and Alphonse Elric's reckless disregard for alchemy's fun\u00addamental laws ripped half of Ed's limbs from his body and left Al's soul clinging to a cold suit of armor. To restore what was lost, the brothers scour a war-torn land for the Philosopher's Sto\u00adne, a fabled relic which grants the ability to perform alchemy in impossible ways.\n\nThe Elrics are not alone in their search; the corrupt State Military is also eager to harness the artifact's power. So too are the strange Homunculi and their shadowy creator. The mythical gem lures exotic alchemists from distant kingdoms, scarring some deeply enough to inspire murder. As the Elrics find their course altered by these enemies and allies, their purpose remains unchanged – and their bond unbreakable.",
            "poster_path": "/ySPZ3pBaxj4XiMZEvTlyTEBF2Cc.jpg"
        },
        {
            "original_name": "Over the Garden Wall",
            "genre_ids": [
                16,
                35,
                9648,
                10751,
                10765
            ],
            "name": "Over the Garden Wall",
            "popularity": 10.046,
            "origin_country": [
                "US"
            ],
            "vote_count": 140,
            "first_air_date": "2014-11-03",
            "backdrop_path": "/7vWXXOfsFiopxyuE1U303aej0fT.jpg",
            "original_language": "en",
            "id": 61617,
            "vote_average": 8.3,
            "overview": "Two brothers, Wirt and Greg, find themselves lost in the Unknown; a strange forest adrift in time. With the help of a wise old Woodsman and a foul-tempered bluebird named Beatrice, Wirt and Greg must travel across this strange land, in hope of finding their way home. Join them as they encounter surprises and obstacles on their journey through the wood.",
            "poster_path": "/2kcGFbt768xAiqvj748FFlO9Gvl.jpg"
        },
        {
            "original_name": "Breaking Bad",
            "genre_ids": [
                18
            ],
            "name": "Breaking Bad",
            "popularity": 36.241,
            "origin_country": [
                "US"
            ],
            "vote_count": 2824,
            "first_air_date": "2008-01-20",
            "backdrop_path": "/eSzpy96DwBujGFj0xMbXBcGcfxX.jpg",
            "original_language": "en",
            "id": 1396,
            "vote_average": 8.3,
            "overview": "When Walter White, a New Mexico chemistry teacher, is diagnosed with Stage III cancer and given a prognosis of only two years left to live, he becomes filled with a sense of fearlessness and an unrelenting desire to secure his family's financial future at any cost as he enters the dangerous world of drugs and crime.",
            "poster_path": "/1yeVJox3rjo2jBKrrihIMj7uoS9.jpg"
        },
        {
            "original_name": "Sherlock",
            "genre_ids": [
                80,
                18,
                9648
            ],
            "name": "Sherlock",
            "popularity": 22.77,
            "origin_country": [
                "GB"
            ],
            "vote_count": 1471,
            "first_air_date": "2010-07-25",
            "backdrop_path": "/bvS50jBZXtglmLu72EAt5KgJBrL.jpg",
            "original_language": "en",
            "id": 19885,
            "vote_average": 8.3,
            "overview": "A modern update finds the famous sleuth and his doctor partner solving crime in 21st century London.",
            "poster_path": "/f9zGxLHGyQB10cMDZNY5ZcGKhZi.jpg"
        },
        {
            "original_name": "The Wire",
            "id": 1438,
            "name": "The Wire",
            "popularity": 23.488,
            "vote_count": 690,
            "vote_average": 8.3,
            "first_air_date": "2002-06-02",
            "poster_path": "/dg7NuKDjmS6OzuNy33qt8kSkPA1.jpg",
            "genre_ids": [
                80,
                18
            ],
            "original_language": "en",
            "backdrop_path": "/4hWfYN3wiOZZXC7t6B70BF9iUvk.jpg",
            "overview": "Told from the points of view of both the Baltimore homicide and narcotics detectives and their targets, the series captures a universe in which the national war on drugs has become a permanent, self-sustaining bureaucracy, and distinctions between good and evil are routinely obliterated.",
            "origin_country": [
                "US"
            ]
        },
        {
            "original_name": "Gravity Falls",
            "genre_ids": [
                16,
                35,
                9648,
                10765
            ],
            "name": "Gravity Falls",
            "popularity": 18.007,
            "origin_country": [
                "US"
            ],
            "vote_count": 190,
            "first_air_date": "2012-06-15",
            "backdrop_path": "/sJjrJWsOCUUeVMexxANNC6s3dWV.jpg",
            "original_language": "en",
            "id": 40075,
            "vote_average": 8.3,
            "overview": "Twin brother and sister Dipper and Mabel Pines are in for an unexpected adventure when they spend the summer helping their great uncle Stan run a tourist trap in the mysterious town of Gravity Falls, Oregon.",
            "poster_path": "/oGsgxjeZ9rd20eCJsGSMGgWvl4P.jpg"
        },
        {
            "original_name": "ワンパンマン",
            "genre_ids": [
                16,
                35,
                10759
            ],
            "name": "One-Punch Man",
            "popularity": 13.234,
            "origin_country": [
                "JP"
            ],
            "vote_count": 215,
            "first_air_date": "2015-10-04",
            "backdrop_path": "/s0w8JbuNNxL1YgaHeDWih12C3jG.jpg",
            "original_language": "ja",
            "id": 63926,
            "vote_average": 8.3,
            "overview": "Saitama is a hero who only became a hero for fun. After three years of “special” training, though, he’s become so strong that he’s practically invincible. In fact, he’s too strong—even his mightiest opponents are taken out with a single punch, and it turns out that being devastatingly powerful is actually kind of a bore. With his passion for being a hero lost along with his hair, yet still faced with new enemies every day, how much longer can he keep it going?",
            "poster_path": "/iE3s0lG5QVdEHOEZnoAxjmMtvne.jpg"
        },
        {
            "original_name": "Fargo",
            "genre_ids": [
                80,
                18
            ],
            "name": "Fargo",
            "popularity": 17.685,
            "origin_country": [
                "US"
            ],
            "vote_count": 851,
            "first_air_date": "2014-04-15",
            "backdrop_path": "/zR9dfXXiUGahiHcgbt1dCBdUpiu.jpg",
            "original_language": "en",
            "id": 60622,
            "vote_average": 8.3,
            "overview": "A close-knit anthology series dealing with stories involving malice, violence and murder based in and around Minnesota.",
            "poster_path": "/e890UetS6XH7kqltlZ8VU6qDaHU.jpg"
        },
        {
            "original_name": "Seinfeld",
            "id": 1400,
            "name": "Seinfeld",
            "popularity": 29.6,
            "vote_count": 564,
            "vote_average": 8.3,
            "first_air_date": "1989-07-05",
            "poster_path": "/u3mFyqIprL5ou8Ue04Ecac6iDi7.jpg",
            "genre_ids": [
                35
            ],
            "original_language": "en",
            "backdrop_path": "/8JH8s4WKKSxGxtJvWbQAdaEjv9q.jpg",
            "overview": "Seinfeld is an American television sitcom that originally aired on NBC from July 5, 1989, to May 14, 1998. It lasted nine seasons, and is now in syndication. It was created by Larry David and Jerry Seinfeld, the latter starring as a fictionalized version of himself. Set predominantly in an apartment block in Manhattan's Upper West Side in New York City, the show features a handful of Jerry's friends and acquaintances, particularly best friend George Costanza, former girlfriend Elaine Benes, and neighbor across the hall Cosmo Kramer.",
            "origin_country": [
                "US"
            ]
        },
        {
            "original_name": "Justice League",
            "genre_ids": [
                16,
                10759,
                10765
            ],
            "name": "Justice League",
            "popularity": 5.945,
            "origin_country": [
                "US"
            ],
            "vote_count": 117,
            "first_air_date": "2001-11-17",
            "backdrop_path": "/iQd8vbCrdnb6i9Dm9eHOvXyeXBY.jpg",
            "original_language": "en",
            "id": 1618,
            "vote_average": 8.2,
            "overview": "Justice League is an American animated television series which ran from 2001 to 2004 on Cartoon Network. It is part of the DC animated universe. The show was produced by Warner Bros. Animation. It is based on the Justice League of America and associated comic book characters published by DC Comics. After the second season, the series was renamed Justice League Unlimited, and aired for an additional three seasons.",
            "poster_path": "/1JszDEGLI6s5HjoGhe3VnfX2ez8.jpg"
        },
        {
            "original_name": "Avatar: The Last Airbender",
            "genre_ids": [
                28,
                12,
                16,
                14
            ],
            "name": "Avatar: The Last Airbender",
            "popularity": 5.83,
            "origin_country": [
                "US"
            ],
            "vote_count": 369,
            "first_air_date": "2005-02-21",
            "backdrop_path": "/732azfQ0xUAJNQ48pPfVtCCLVlZ.jpg",
            "original_language": "en",
            "id": 246,
            "vote_average": 8.2,
            "overview": "In a war-torn world of elemental magic, a young boy reawakens to undertake a dangerous mystic quest to fulfill his destiny as the Avatar, and bring peace to the world.",
            "poster_path": "/sB8V0pQtJZ17v8FLXMOcYz6045c.jpg"
        },
        {
            "original_name": "Cosmos: A Personal Voyage",
            "genre_ids": [
                99
            ],
            "name": "Cosmos: A Personal Voyage",
            "popularity": 6.167,
            "origin_country": [
                "US"
            ],
            "vote_count": 111,
            "first_air_date": "1980-09-28",
            "backdrop_path": "/hd0Qqv9EcLzELE6UuxRFKAGvgq9.jpg",
            "original_language": "en",
            "id": 1430,
            "vote_average": 8.3,
            "overview": "Cosmos: A Personal Voyage is a thirteen-part television series written by Carl Sagan, Ann Druyan, and Steven Soter, with Sagan as presenter. It was executive-produced by Adrian Malone, produced by David Kennard, Geoffrey Haines-Stiles and Gregory Andorfer, and directed by the producers, David Oyster, Richard Wells, Tom Weidlinger, and others. It covered a wide range of scientific subjects, including the origin of life and a perspective of our place in the universe.\n\nThe series was first broadcast by the Public Broadcasting Service in 1980 and was the most widely watched series in the history of American public television until The Civil War. As of 2009, it was still the most widely watched PBS series in the world. It won an Emmy and a Peabody Award and has since been broadcast in more than 60 countries and seen by over 500 million people. A book was also published to accompany the series.",
            "poster_path": "/nOGArjE0WMkzY2GW1taJm8l9gxD.jpg"
        },
        {
            "original_name": "Fawlty Towers",
            "genre_ids": [
                35
            ],
            "name": "Fawlty Towers",
            "popularity": 9.154,
            "origin_country": [
                "GB"
            ],
            "vote_count": 252,
            "first_air_date": "1975-09-19",
            "backdrop_path": "/9Iq4GWP4VrzZd9JBszPAoA474u4.jpg",
            "original_language": "en",
            "id": 2207,
            "vote_average": 8.2,
            "overview": "Fawlty Towers is a British sitcom produced by BBC Television that was first broadcast on BBC2 in 1975 and 1979. Twelve episodes were made. The show was written by John Cleese and his then wife Connie Booth, both of whom also starred in the show.\n\nThe series is set in Fawlty Towers, a fictional hotel in the seaside town of Torquay, on the \"English Riviera\". The plots centre around tense, rude and put-upon owner Basil Fawlty, his bossy wife Sybil, a comparatively normal chambermaid Polly, and hapless Spanish waiter Manuel and their attempts to run the hotel amidst farcical situations and an array of demanding and eccentric guests.\n\nIn a list drawn up by the British Film Institute in 2000, voted by industry professionals, Fawlty Towers was named the best British television series of all time.",
            "poster_path": "/mI2KKCCgysG3JX39BM2C8zfqanV.jpg"
        },
        {
            "original_name": "The Sopranos",
            "genre_ids": [
                18
            ],
            "name": "The Sopranos",
            "popularity": 19.687,
            "origin_country": [
                "US"
            ],
            "vote_count": 671,
            "first_air_date": "1999-01-10",
            "backdrop_path": "/8GZ91vtbYOMp05qruAGPezWC0Ja.jpg",
            "original_language": "en",
            "id": 1398,
            "vote_average": 8.3,
            "overview": "The story of New Jersey-based Italian-American mobster Tony Soprano and the difficulties he faces as he tries to balance the conflicting requirements of his home life and the criminal organization he heads. Those difficulties are often highlighted through his ongoing professional relationship with psychiatrist Jennifer Melfi. The show features Tony's family members and Mafia associates in prominent roles and story arcs, most notably his wife Carmela and his cousin and protégé Christopher Moltisanti.",
            "poster_path": "/u0cLcBQITrYqfHsn06fxnQwtqiE.jpg"
        }
    ]
}
